{
    "assetPackages": [
        [
            "default",
            "default",
            "default asset package"
        ],
        [
            "default_1",
            "default (copy)",
            "default asset package (copy)"
        ]
    ]
}